{
  "entities": [
    {
      "otherSectionsData": {},
      "contextData": {
        "campaignId": "5a166726322cfb00185e6da4",
        "companyId": "5a7b1087d3539b7c81c53794",
        "orgSize": null,
        "companyName": "ABC",
        "ctryCode": "US",
        "sectionId": "RandomSectionCode1",
        "grpCode": "",
        "cpyCode": "",
        "uniqueIdColumnCode": "YOUR_EEID",
        "industry": {
          "superSector": "CH",
          "sector": "209",
          "subSector": "2550"
        }
      },
      "sectionStructure": {
        "columns": [
          {
            "code": "YOUR_EEID",
            "dataType": "string",
            "questionType": "text",
            "hidden": false,
            "validations": [
              {
                "mda": "exclude_row",
                "parameter": "",
                "expression": "ISBLANK(this.YOUR_EEID);",
                "errorType": "ERROR",
                "validationType": "expression",
                "_id": "5a6c69823a51580018605a78",
                "category": "input_data",
                "dependentColumns": []
              }
            ]
          },
          {
            "code": "YOUR_TITLE",
            "dataType": "string",
            "questionType": "text",
            "hidden": false,
            "validations": []
          },
          {
            "code": "RandomQuesCode1",
            "dataType": "int",
            "questionType": "integer",
            "hidden": false,
            "validations": [
              {
                "mda": "",
                "parameter": "",
                "expression": "this.RandomQuesCode1<10;",
                "errorType": "ERROR",
                "validationType": "expression",
                "_id": "5a671aa71f1d39001606c8cf",
                "category": "input_data",
                "dependentColumns": []
              },
              {
                "mda": "",
                "parameter": "",
                "expression": "ISBLANK(this.RandomQuesCode1);",
                "errorType": "ALERT",
                "validationType": "expression",
                "_id": "5a71ba82ce685b00183e3eaf",
                "category": "input_data",
                "dependentColumns": []
              }
            ]
          },
          {
            "code": "RandomQuesCode2",
            "dataType": "date",
            "questionType": "date",
            "hidden": false,
            "validations": [
              {
                "mda": "",
                "parameter": "",
                "expression": "YEAR(TO_DATE(this.RandomQuesCode2,\"yyyy-MM-dd\"))<2017;",
                "errorType": "ALERT",
                "validationType": "expression",
                "_id": "5a66fbf6653d75001801c4a8",
                "category": "input_data",
                "dependentColumns": []
              }
            ]
          },
          {
            "code": "RandomQuesCode3",
            "dataType": "string",
            "questionType": "dropdown",
            "hidden": false,
            "validations": [],
            "options": {
              "items": [
                {
                  "value": "a",
                  "displayName": "a"
                },
                {
                  "value": "b",
                  "displayName": "b"
                },
                {
                  "value": "c",
                  "displayName": "c"
                }
              ]
            }
          },
          {
            "code": "RandomQuesCode4",
            "dataType": "double",
            "questionType": "double",
            "hidden": false,
            "validations": []
          },
          {
            "code": "RandomQuesCode5",
            "dataType": "int",
            "questionType": "integer",
            "hidden": false,
            "validations": []
          },
          {
            "code": "RandomQuesCode6",
            "dataType": "int",
            "questionType": "integer",
            "hidden": false,
            "validations": [
              {
                "_id": "5a44daa2fc42f1001749c443",
                "validationType": "expression",
                "errorType": "ENHANCEMENT",
                "expression": "this.RandomQuesCode6>50;",
                "parameter": "",
                "category": "input_data",
                "dependentColumns": []
              }
            ]
          },
          {
            "code": "RandomQuesCode7",
            "dataType": "int",
            "questionType": "integer",
            "hidden": false,
            "validations": []
          },
          {
            "code": "RandomQuesCode8",
            "dataType": "int",
            "questionType": "integer",
            "hidden": false,
            "validations": []
          },
          {
            "code": "RandomQuesCode9",
            "dataType": "double",
            "questionType": "double",
            "hidden": false,
            "validations": []
          },
          {
            "code": "RandomQuesCode10",
            "dataType": "string",
            "questionType": "radio_buttons",
            "hidden": false,
            "validations": [
              {
                "mdaExpression": "",
                "parameter": "",
                "expression": "FIND_IN_SET(this.RandomQuesCode10,[\"m\"]);",
                "errorType": "ERROR",
                "validationType": "expression",
                "_id": "5a54b466d268d600188aba3a",
                "category": "input_data",
                "dependentColumns": []
              }
            ],
            "options": {
              "items": [
                {
                  "value": "m",
                  "displayName": "m"
                },
                {
                  "value": "n",
                  "displayName": "n"
                },
                {
                  "value": "o",
                  "displayName": "o"
                }
              ]
            }
          },
          {
            "code": "POS_CLASS",
            "dataType": "int",
            "questionType": "integer",
            "hidden": false,
            "validations": []
          },
          {
            "code": "YOUR_CODE",
            "dataType": "string",
            "questionType": "text",
            "hidden": false,
            "validations": []
          },
          {
            "code": "YOUR_LEVEL",
            "dataType": "string",
            "questionType": "text",
            "hidden": false,
            "validations": []
          },
          {
            "code": "YOUR_GRADE",
            "dataType": "string",
            "questionType": "text",
            "hidden": false,
            "validations": []
          },
          {
            "code": "POS_CODE",
            "dataType": "string",
            "questionType": "text",
            "hidden": false,
            "validations": [
              {
                "mda": "",
                "parameter": "",
                "expression": "ISBLANK(this.YOUR_TITLE) && ISBLANK(this.POS_CODE);",
                "errorType": "ERROR",
                "validationType": "expression",
                "_id": "5a704c350819f80017f0d08c",
                "category": "file_acceptance",
                "dependentColumns": []
              }
            ]
          },
          {
            "code": "MDA_001",
            "dataType": "int",
            "questionType": "integer",
            "hidden": false,
            "validations": [
              {
                "_id": "5a1eceac523efc00172e00f5",
                "mda": "5;",
                "maxError": 20,
                "maxAlert": 15,
                "minError": 5,
                "minAlert": 10,
                "validationType": "range",
                "category": "input_data",
                "dependentColumns": []
              }
            ]
          },
          {
            "code": "RANDOM",
            "dataType": "string",
            "questionType": "text",
            "hidden": false,
            "validations": []
          },
          {
            "code": "CLIENT_EXCLUDE_EMPLOYEE",
            "dataType": "string",
            "questionType": "text",
            "hidden": true,
            "validations": []
          },
          {
            "code": "EMP_129",
            "dataType": "double",
            "questionType": "double",
            "hidden": false,
            "validations": [
              {
                "mda": "exclude_row",
                "parameter": "",
                "expression": "FIND_IN_SET(contextData.ctryCode,[\"AT\",\"BE\",\"BG\",\"CH\",\"CZ\",\"DE\",\"DK\",\"EE\",\"ES\",\"FI\",\"FR\",\"GB\",\"GR\",\"HR\",\"HU\",\"IE\",\"IT\",\"KZ\",\"LT\",\"LV\",\"NL\",\"NO\",\"PL\",\"PT\",\"RO\",\"RS\",\"RU\",\"SE\",\"SI\",\"SK\",\"TR\",\"UA\"]) AND ISBLANK(this.EMP_125) AND ISBLANK(this.EMP_129);",
                "errorType": "ERROR",
                "validationType": "expression",
                "_id": "5a72b46fd5df3a0017ab7cda",
                "category": "input_data",
                "dependentColumns": []
              },
              {
                "parameter": "",
                "expression": "this.GZ134 < 300;",
                "errorType": "ERROR",
                "validationType": "expression",
                "_id": "5a25c0f711825f0015c3032c",
                "category": "input_data",
                "dependentColumns": []
              },
              {
                "_id": "5a575abc648a740017e233b8",
                "validationType": "expression",
                "errorType": "ALERT",
                "expression": "ratio = 100*(this.EMP_129 /  this.EMP_131);\nEXP_SALINFLATION = NVL(LOOK_UP_CHECK(\"country\",\"CTX_CTRY_CODE = contextData.ctryCode\",\"SALARY_INFLATION\"),0);\n\n(this.EMP_042 == \"N\" OR ISBLANK(this.EMP_042))\n AND this.EMP_131 > 0 AND  this.EMP_129 > 0 \n AND ( (ratio  - 100) < -5   OR ( (ratio - 100) > (EXP_SALINFLATION * 100 + 20 )) ) ;",
                "parameter": "",
                "category": "input_data",
                "dependentColumns": []
              },
              {
                "_id": "5a38e78ba70fc400160adeef",
                "validationType": "expression",
                "errorType": "ALERT",
                "expression": "this.EXP_COMP1 > 0;",
                "parameter": "",
                "category": "input_data",
                "dependentColumns": []
              },
              {
                "parameter": "",
                "expression": "this.CAREER_LEVEL != 1;",
                "errorType": "ALERT",
                "validationType": "expression",
                "_id": "5a2686cf2565f500154a5960",
                "category": "input_data",
                "dependentColumns": []
              },
              {
                "mda": "",
                "parameter": "",
                "expression": "FIND_IN_SET(contextData.ctryCode,[\"AT\",\"BE\",\"BG\",\"CH\",\"CZ\",\"DE\",\"DK\",\"EE\",\"ES\",\"FI\",\"FR\",\"GB\",\"GR\",\"HR\",\"HU\",\"IE\",\"IT\",\"KZ\",\"LT\",\"LV\",\"NL\",\"NO\",\"PL\",\"PT\",\"RO\",\"RS\",\"RU\",\"SE\",\"SI\",\"SK\",\"TR\",\"UA\"]) AND ISBLANK(this.EMP_125) AND ISBLANK(this.EMP_129);",
                "errorType": "ERROR",
                "validationType": "expression",
                "_id": "5a72b46fd5df3a0017ab7cd9",
                "category": "file_acceptance",
                "dependentColumns": []
              },
              {
                "mda": "exclude_row",
                "parameter": "",
                "expression": "ISBLANK(this.EMP_129) && ISBLANK(this.EMP_130);",
                "errorType": "ERROR",
                "validationType": "expression",
                "_id": "5a6c6a9a3a51580018605a7b",
                "category": "input_data",
                "dependentColumns": []
              },
              {
                "_id": "5a7034889197040018ac4228",
                "validationType": "expression",
                "errorType": "ERROR",
                "expression": "contextData.ctryCode == “US” AND ISBLANK(this.HOURLY_RATE) AND ISBLANK(this.EMP_129);",
                "parameter": "",
                "mda": "",
                "category": "file_acceptance",
                "dependentColumns": []
              },
              {
                "mda": "exclude_row",
                "parameter": "",
                "expression": "contextData.ctryCode == “US” AND ISBLANK(this.HOURLY_RATE) AND ISBLANK(this.EMP_129);",
                "errorType": "ERROR",
                "validationType": "expression",
                "_id": "5a6f336855b5ad0018ec0073",
                "category": "input_data",
                "dependentColumns": []
              }
            ]
          }
        ]
      }
    },
    {
      "otherSectionsData": {},
      "contextData": {
        "campaignId": "5a166726322cfb00185e6da4",
        "companyId": "5a995d8146c3ac7d938ffd3b",
        "companyName": "ABC",
        "ctryCode": "AL",
        "sectionId": "RandomSectionCode1",
        "grpCode": "",
        "cpyCode": "",
        "uniqueIdColumnCode": "YOUR_EEID",
        "industry": {
          "superSector": "CH",
          "sector": "209"
        }
      },
      "sectionStructure": {
        "columns": [
          {
            "code": "YOUR_EEID",
            "dataType": "string",
            "questionType": "text",
            "hidden": false,
            "validations": [
              {
                "mda": "exclude_row",
                "parameter": "",
                "expression": "ISBLANK(this.YOUR_EEID);",
                "errorType": "ERROR",
                "validationType": "expression",
                "_id": "5a6c69823a51580018605a78",
                "category": "input_data",
                "dependentColumns": []
              }
            ]
          },
          {
            "code": "YOUR_TITLE",
            "dataType": "string",
            "questionType": "text",
            "hidden": false,
            "validations": []
          },
          {
            "code": "RandomQuesCode1",
            "dataType": "int",
            "questionType": "integer",
            "hidden": false,
            "validations": [
              {
                "mda": "",
                "parameter": "",
                "expression": "this.RandomQuesCode1<10;",
                "errorType": "ERROR",
                "validationType": "expression",
                "_id": "5a671aa71f1d39001606c8cf",
                "category": "input_data",
                "dependentColumns": []
              },
              {
                "mda": "",
                "parameter": "",
                "expression": "ISBLANK(this.RandomQuesCode1);",
                "errorType": "ALERT",
                "validationType": "expression",
                "_id": "5a71ba82ce685b00183e3eaf",
                "category": "input_data",
                "dependentColumns": []
              }
            ]
          },
          {
            "code": "RandomQuesCode2",
            "dataType": "date",
            "questionType": "date",
            "hidden": false,
            "validations": [
              {
                "mda": "",
                "parameter": "",
                "expression": "YEAR(TO_DATE(this.RandomQuesCode2,\"yyyy-MM-dd\"))<2017;",
                "errorType": "ALERT",
                "validationType": "expression",
                "_id": "5a66fbf6653d75001801c4a8",
                "category": "input_data",
                "dependentColumns": []
              }
            ]
          },
          {
            "code": "RandomQuesCode3",
            "dataType": "string",
            "questionType": "dropdown",
            "hidden": false,
            "validations": [],
            "options": {
              "items": [
                {
                  "value": "a",
                  "displayName": "a"
                },
                {
                  "value": "b",
                  "displayName": "b"
                },
                {
                  "value": "c",
                  "displayName": "c"
                }
              ]
            }
          },
          {
            "code": "RandomQuesCode4",
            "dataType": "double",
            "questionType": "double",
            "hidden": false,
            "validations": []
          },
          {
            "code": "RandomQuesCode5",
            "dataType": "int",
            "questionType": "integer",
            "hidden": false,
            "validations": []
          },
          {
            "code": "RandomQuesCode6",
            "dataType": "int",
            "questionType": "integer",
            "hidden": false,
            "validations": [
              {
                "_id": "5a44daa2fc42f1001749c443",
                "validationType": "expression",
                "errorType": "ENHANCEMENT",
                "expression": "this.RandomQuesCode6>50;",
                "parameter": "",
                "category": "input_data",
                "dependentColumns": []
              }
            ]
          },
          {
            "code": "RandomQuesCode7",
            "dataType": "int",
            "questionType": "integer",
            "hidden": false,
            "validations": []
          },
          {
            "code": "RandomQuesCode8",
            "dataType": "int",
            "questionType": "integer",
            "hidden": false,
            "validations": []
          },
          {
            "code": "RandomQuesCode9",
            "dataType": "double",
            "questionType": "double",
            "hidden": false,
            "validations": []
          },
          {
            "code": "RandomQuesCode10",
            "dataType": "string",
            "questionType": "radio_buttons",
            "hidden": false,
            "validations": [
              {
                "mdaExpression": "",
                "parameter": "",
                "expression": "FIND_IN_SET(this.RandomQuesCode10,[\"m\"]);",
                "errorType": "ERROR",
                "validationType": "expression",
                "_id": "5a54b466d268d600188aba3a",
                "category": "input_data",
                "dependentColumns": []
              }
            ],
            "options": {
              "items": [
                {
                  "value": "m",
                  "displayName": "m"
                },
                {
                  "value": "n",
                  "displayName": "n"
                },
                {
                  "value": "o",
                  "displayName": "o"
                }
              ]
            }
          },
          {
            "code": "POS_CLASS",
            "dataType": "int",
            "questionType": "integer",
            "hidden": false,
            "validations": []
          },
          {
            "code": "YOUR_CODE",
            "dataType": "string",
            "questionType": "text",
            "hidden": false,
            "validations": []
          },
          {
            "code": "YOUR_LEVEL",
            "dataType": "string",
            "questionType": "text",
            "hidden": false,
            "validations": []
          },
          {
            "code": "YOUR_GRADE",
            "dataType": "string",
            "questionType": "text",
            "hidden": false,
            "validations": []
          },
          {
            "code": "POS_CODE",
            "dataType": "string",
            "questionType": "text",
            "hidden": false,
            "validations": [
              {
                "mda": "",
                "parameter": "",
                "expression": "ISBLANK(this.YOUR_TITLE) && ISBLANK(this.POS_CODE);",
                "errorType": "ERROR",
                "validationType": "expression",
                "_id": "5a704c350819f80017f0d08c",
                "category": "file_acceptance",
                "dependentColumns": []
              }
            ]
          },
          {
            "code": "YOUR_OTHER",
            "dataType": "string",
            "questionType": "text",
            "hidden": false,
            "validations": []
          },
          {
            "code": "MDA_001",
            "dataType": "int",
            "questionType": "integer",
            "hidden": false,
            "validations": [
              {
                "_id": "5a1eceac523efc00172e00f5",
                "mda": "5;",
                "maxError": 20,
                "maxAlert": 15,
                "minError": 5,
                "minAlert": 10,
                "validationType": "range",
                "category": "input_data",
                "dependentColumns": []
              }
            ]
          },
          {
            "code": "RANDOM",
            "dataType": "string",
            "questionType": "text",
            "hidden": false,
            "validations": []
          },
          {
            "code": "CLIENT_EXCLUDE_EMPLOYEE",
            "dataType": "string",
            "questionType": "text",
            "hidden": true,
            "validations": []
          },
          {
            "code": "EMP_125",
            "dataType": "double",
            "questionType": "double",
            "hidden": false,
            "validations": [
              {
                "mda": "exclude_row",
                "parameter": "",
                "expression": "FIND_IN_SET(contextData.ctryCode,[\"BD\",\"CN\",\"HK\",\"ID\",\"IN\",\"JP\",\"KH\",\"KR\",\"LK\",\"MM\",\"MY\",\"PH\",\"PK\",\"SG\",\"TH\",\"TW\",\"VN\",\"BY\"]) AND ISBLANK(this.EMP_125);",
                "errorType": "ERROR",
                "validationType": "expression",
                "_id": "5a72b4bdd5df3a0017ab7cdb",
                "category": "input_data",
                "dependentColumns": []
              }
            ]
          },
          {
            "code": "EMP_128",
            "dataType": "double",
            "questionType": "double",
            "hidden": false,
            "validations": [
              {
                "maxError": 16,
                "minError": 12,
                "maxAlert": 16,
                "minAlert": 12,
                "mda": "12;",
                "_id": "59f193ce1b74370015235856",
                "validationType": "range",
                "category": "input_data",
                "dependentColumns": []
              },
              {
                "mda": "12;",
                "parameter": "",
                "expression": "ISBLANK(this.EMP_128);",
                "errorType": "ERROR",
                "validationType": "expression",
                "_id": "5a6c63db4bbbbd00182bf379",
                "category": "input_data",
                "dependentColumns": []
              }
            ]
          },
          {
            "code": "EMP_129",
            "dataType": "double",
            "questionType": "double",
            "hidden": false,
            "validations": [
              {
                "mda": "exclude_row",
                "parameter": "",
                "expression": "FIND_IN_SET(contextData.ctryCode,[\"AT\",\"BE\",\"BG\",\"CH\",\"CZ\",\"DE\",\"DK\",\"EE\",\"ES\",\"FI\",\"FR\",\"GB\",\"GR\",\"HR\",\"HU\",\"IE\",\"IT\",\"KZ\",\"LT\",\"LV\",\"NL\",\"NO\",\"PL\",\"PT\",\"RO\",\"RS\",\"RU\",\"SE\",\"SI\",\"SK\",\"TR\",\"UA\"]) AND ISBLANK(this.EMP_125) AND ISBLANK(this.EMP_129);",
                "errorType": "ERROR",
                "validationType": "expression",
                "_id": "5a72b46fd5df3a0017ab7cda",
                "category": "input_data",
                "dependentColumns": []
              },
              {
                "parameter": "",
                "expression": "this.GZ134 < 300;",
                "errorType": "ERROR",
                "validationType": "expression",
                "_id": "5a25c0f711825f0015c3032c",
                "category": "input_data",
                "dependentColumns": []
              },
              {
                "_id": "5a575abc648a740017e233b8",
                "validationType": "expression",
                "errorType": "ALERT",
                "expression": "ratio = 100*(this.EMP_129 /  this.EMP_131);\nEXP_SALINFLATION = NVL(LOOK_UP_CHECK(\"country\",\"CTX_CTRY_CODE = contextData.ctryCode\",\"SALARY_INFLATION\"),0);\n\n(this.EMP_042 == \"N\" OR ISBLANK(this.EMP_042))\n AND this.EMP_131 > 0 AND  this.EMP_129 > 0 \n AND ( (ratio  - 100) < -5   OR ( (ratio - 100) > (EXP_SALINFLATION * 100 + 20 )) ) ;",
                "parameter": "",
                "category": "input_data",
                "dependentColumns": []
              },
              {
                "_id": "5a38e78ba70fc400160adeef",
                "validationType": "expression",
                "errorType": "ALERT",
                "expression": "this.EXP_COMP1 > 0;",
                "parameter": "",
                "category": "input_data",
                "dependentColumns": []
              },
              {
                "parameter": "",
                "expression": "this.CAREER_LEVEL != 1;",
                "errorType": "ALERT",
                "validationType": "expression",
                "_id": "5a2686cf2565f500154a5960",
                "category": "input_data",
                "dependentColumns": []
              },
              {
                "mda": "",
                "parameter": "",
                "expression": "FIND_IN_SET(contextData.ctryCode,[\"AT\",\"BE\",\"BG\",\"CH\",\"CZ\",\"DE\",\"DK\",\"EE\",\"ES\",\"FI\",\"FR\",\"GB\",\"GR\",\"HR\",\"HU\",\"IE\",\"IT\",\"KZ\",\"LT\",\"LV\",\"NL\",\"NO\",\"PL\",\"PT\",\"RO\",\"RS\",\"RU\",\"SE\",\"SI\",\"SK\",\"TR\",\"UA\"]) AND ISBLANK(this.EMP_125) AND ISBLANK(this.EMP_129);",
                "errorType": "ERROR",
                "validationType": "expression",
                "_id": "5a72b46fd5df3a0017ab7cd9",
                "category": "file_acceptance",
                "dependentColumns": []
              },
              {
                "mda": "exclude_row",
                "parameter": "",
                "expression": "ISBLANK(this.EMP_129) && ISBLANK(this.EMP_130);",
                "errorType": "ERROR",
                "validationType": "expression",
                "_id": "5a6c6a9a3a51580018605a7b",
                "category": "input_data",
                "dependentColumns": []
              },
              {
                "_id": "5a7034889197040018ac4228",
                "validationType": "expression",
                "errorType": "ERROR",
                "expression": "contextData.ctryCode == “US” AND ISBLANK(this.HOURLY_RATE) AND ISBLANK(this.EMP_129);",
                "parameter": "",
                "mda": "",
                "category": "file_acceptance",
                "dependentColumns": []
              },
              {
                "mda": "exclude_row",
                "parameter": "",
                "expression": "contextData.ctryCode == “US” AND ISBLANK(this.HOURLY_RATE) AND ISBLANK(this.EMP_129);",
                "errorType": "ERROR",
                "validationType": "expression",
                "_id": "5a6f336855b5ad0018ec0073",
                "category": "input_data",
                "dependentColumns": []
              }
            ]
          }
        ]
      }
    }
  ]
}