timeStamp,elapsed,label,responseCode,threadName,success,bytes,grpThreads,allThreads,Latency,SampleCount,ErrorCount,Hostname,Connect
1512655271869,1000,NoFileUpload B21_7045RawJson_NonNumerciData,Non HTTP response code: java.net.ConnectException,Thread Group_Prod1 1-1,false,2137,1,1,0,1,1,INFPU07042,1000
1512655272895,1012,NoFileUpload B21_7045RawJson_SkipBlankCols,Non HTTP response code: java.net.ConnectException,Thread Group_Prod1 1-1,false,2137,1,1,0,1,1,INFPU07042,1012
1512655273916,1011,NoFileUpload B21_7045RawJson_SkipNonNumericCols,Non HTTP response code: java.net.ConnectException,Thread Group_Prod1 1-1,false,2137,1,1,0,1,1,INFPU07042,1010
1512655274936,1020,NoFileUpload B21_7045RawJson_WithDimesion,Non HTTP response code: java.net.ConnectException,Thread Group_Prod1 1-1,false,2137,1,1,0,1,1,INFPU07042,1019
1512655275974,1000,NoFileUpload B21_7045RawJson_SingleNonBlankValue,Non HTTP response code: java.net.ConnectException,Thread Group_Prod1 1-1,false,2137,1,1,0,1,1,INFPU07042,1000
1512655276984,1000,NoFileUpload B21_7045RawJson_WithOtherValidation,Non HTTP response code: java.net.ConnectException,Thread Group_Prod1 1-1,false,2137,1,1,0,1,1,INFPU07042,1000
1512655325617,999,NoFileUpload B21_7045RawJson_NonNumerciData,Non HTTP response code: java.net.ConnectException,Thread Group_Prod1 1-1,false,2137,1,1,0,1,1,INFPU07042,999
1512655326636,1009,NoFileUpload B21_7045RawJson_SkipBlankCols,Non HTTP response code: java.net.ConnectException,Thread Group_Prod1 1-1,false,2137,1,1,0,1,1,INFPU07042,1009
1512655327656,1000,NoFileUpload B21_7045RawJson_SkipNonNumericCols,Non HTTP response code: java.net.ConnectException,Thread Group_Prod1 1-1,false,2137,1,1,0,1,1,INFPU07042,1000
1512655328667,999,NoFileUpload B21_7045RawJson_WithDimesion,Non HTTP response code: java.net.ConnectException,Thread Group_Prod1 1-1,false,2137,1,1,0,1,1,INFPU07042,999
1512655329686,1000,NoFileUpload B21_7045RawJson_SingleNonBlankValue,Non HTTP response code: java.net.ConnectException,Thread Group_Prod1 1-1,false,2137,1,1,0,1,1,INFPU07042,1000
1512655330696,1000,NoFileUpload B21_7045RawJson_WithOtherValidation,Non HTTP response code: java.net.ConnectException,Thread Group_Prod1 1-1,false,2137,1,1,0,1,1,INFPU07042,1000
1512657776520,20,NoFileUpload B21_7045RawJson_NonNumerciData,200,Thread Group_Prod1 1-1,true,1763,1,1,20,1,0,INFPU07042,4
1512657776563,42,NoFileUpload B21_7045RawJson_SkipBlankCols,200,Thread Group_Prod1 1-1,true,1103,1,1,42,1,0,INFPU07042,0
1512657776623,17,NoFileUpload B21_7045RawJson_SkipNonNumericCols,200,Thread Group_Prod1 1-1,true,1076,1,1,17,1,0,INFPU07042,0
1512657776652,7,NoFileUpload B21_7045RawJson_WithDimesion,200,Thread Group_Prod1 1-1,true,1765,1,1,7,1,0,INFPU07042,0
1512657776686,6,NoFileUpload B21_7045RawJson_SingleNonBlankValue,200,Thread Group_Prod1 1-1,true,749,1,1,6,1,0,INFPU07042,0
1512657776705,7,NoFileUpload B21_7045RawJson_WithOtherValidation,200,Thread Group_Prod1 1-1,true,2497,1,1,7,1,0,INFPU07042,0
1512657776726,50,FileUpload D20_PE7045_7045CSV_SimpleSequentialCheck,200,Thread Group_Prod1 1-1,true,1960,1,1,50,1,0,INFPU07042,0
1512657776790,59,FileUpload D20_PE7045_7045Excel_SimpleSequentialCheck,200,Thread Group_Prod1 1-1,true,1943,1,1,59,1,0,INFPU07042,0
1512657776876,15,FileUpload D20_PE7045_7045CSV_SkipBlankColumn,200,Thread Group_Prod1 1-1,true,1682,1,1,15,1,0,INFPU07042,0
1512657776903,481,FileUpload D20_PE7045_7045EXCEL_SkipBlankColumn,200,Thread Group_Prod1 1-1,true,1985,1,1,480,1,0,INFPU07042,0
1512657777395,25,FileUpload D20_PE7045_7045CSV_SkipNonNumericData,200,Thread Group_Prod1 1-1,true,1573,1,1,25,1,0,INFPU07042,0
1512657777432,50,FileUpload D20_PE7045_7045EXCEL_SkipNonNumericData,200,Thread Group_Prod1 1-1,true,2472,1,1,50,1,0,INFPU07042,0
1512657992036,1749,NoFileUpload B21_7045RawJson_NonNumerciData,200,Thread Group_Prod1 1-1,false,722,1,1,1749,1,1,INFPU07042,335
1512657993824,777,NoFileUpload B21_7045RawJson_SkipBlankCols,200,Thread Group_Prod1 1-1,false,652,1,1,777,1,1,INFPU07042,0
1512657994616,775,NoFileUpload B21_7045RawJson_SkipNonNumericCols,200,Thread Group_Prod1 1-1,false,717,1,1,775,1,1,INFPU07042,262
1512657995410,259,NoFileUpload B21_7045RawJson_WithDimesion,200,Thread Group_Prod1 1-1,false,717,1,1,259,1,1,INFPU07042,0
1512657995691,259,NoFileUpload B21_7045RawJson_SingleNonBlankValue,200,Thread Group_Prod1 1-1,false,651,1,1,259,1,1,INFPU07042,0
1512657995962,276,NoFileUpload B21_7045RawJson_WithOtherValidation,200,Thread Group_Prod1 1-1,false,850,1,1,276,1,1,INFPU07042,0
1512657996251,262,FileUpload D20_PE7045_7045CSV_SimpleSequentialCheck,404,Thread Group_Prod1 1-1,false,109,1,1,262,1,1,INFPU07042,0
1512657996523,257,FileUpload D20_PE7045_7045Excel_SimpleSequentialCheck,404,Thread Group_Prod1 1-1,false,109,1,1,257,1,1,INFPU07042,0
1512657996802,514,FileUpload D20_PE7045_7045CSV_SkipBlankColumn,404,Thread Group_Prod1 1-1,false,109,1,1,514,1,1,INFPU07042,255
1512657997330,487,FileUpload D20_PE7045_7045EXCEL_SkipBlankColumn,404,Thread Group_Prod1 1-1,false,109,1,1,487,1,1,INFPU07042,0
1512657997834,257,FileUpload D20_PE7045_7045CSV_SkipNonNumericData,404,Thread Group_Prod1 1-1,false,109,1,1,257,1,1,INFPU07042,0
1512657998101,252,FileUpload D20_PE7045_7045EXCEL_SkipNonNumericData,404,Thread Group_Prod1 1-1,false,109,1,1,252,1,1,INFPU07042,0
1512658069912,851,NoFileUpload B21_7045RawJson_NonNumerciData,200,Thread Group_Prod1 1-1,false,722,1,1,851,1,1,INFPU07042,331
1512658070790,262,NoFileUpload B21_7045RawJson_SkipBlankCols,200,Thread Group_Prod1 1-1,false,652,1,1,261,1,1,INFPU07042,0
1512658071079,269,NoFileUpload B21_7045RawJson_SkipNonNumericCols,200,Thread Group_Prod1 1-1,false,717,1,1,268,1,1,INFPU07042,0
1512658071363,265,NoFileUpload B21_7045RawJson_WithDimesion,200,Thread Group_Prod1 1-1,false,717,1,1,264,1,1,INFPU07042,0
1512658071653,259,NoFileUpload B21_7045RawJson_SingleNonBlankValue,200,Thread Group_Prod1 1-1,false,651,1,1,258,1,1,INFPU07042,0
1512658071926,974,NoFileUpload B21_7045RawJson_WithOtherValidation,200,Thread Group_Prod1 1-1,false,850,1,1,974,1,1,INFPU07042,320
1512658072916,350,FileUpload D20_PE7045_7045CSV_SimpleSequentialCheck,415,Thread Group_Prod1 1-1,false,148,1,1,350,1,1,INFPU07042,0
1512658073281,340,FileUpload D20_PE7045_7045Excel_SimpleSequentialCheck,415,Thread Group_Prod1 1-1,false,148,1,1,340,1,1,INFPU07042,0
1512658073652,320,FileUpload D20_PE7045_7045CSV_SkipBlankColumn,415,Thread Group_Prod1 1-1,false,148,1,1,320,1,1,INFPU07042,0
1512658073987,762,FileUpload D20_PE7045_7045EXCEL_SkipBlankColumn,415,Thread Group_Prod1 1-1,false,148,1,1,762,1,1,INFPU07042,255
1512658074761,283,FileUpload D20_PE7045_7045CSV_SkipNonNumericData,415,Thread Group_Prod1 1-1,false,148,1,1,283,1,1,INFPU07042,0
1512658075056,256,FileUpload D20_PE7045_7045EXCEL_SkipNonNumericData,415,Thread Group_Prod1 1-1,false,148,1,1,256,1,1,INFPU07042,0
1512658255032,35,NoFileUpload B21_7045RawJson_NonNumerciData,200,Thread Group_Prod1 1-1,true,1763,1,1,35,1,0,INFPU07042,6
1512658255091,16,NoFileUpload B21_7045RawJson_SkipBlankCols,200,Thread Group_Prod1 1-1,true,1103,1,1,16,1,0,INFPU07042,0
1512658255123,28,NoFileUpload B21_7045RawJson_SkipNonNumericCols,200,Thread Group_Prod1 1-1,true,1076,1,1,28,1,0,INFPU07042,0
1512658255164,31,NoFileUpload B21_7045RawJson_WithDimesion,200,Thread Group_Prod1 1-1,true,1765,1,1,31,1,0,INFPU07042,0
1512658255218,6,NoFileUpload B21_7045RawJson_SingleNonBlankValue,200,Thread Group_Prod1 1-1,true,749,1,1,6,1,0,INFPU07042,0
1512658255236,7,NoFileUpload B21_7045RawJson_WithOtherValidation,200,Thread Group_Prod1 1-1,true,2497,1,1,7,1,0,INFPU07042,0
1512658255253,25,FileUpload D20_PE7045_7045CSV_SimpleSequentialCheck,200,Thread Group_Prod1 1-1,true,1960,1,1,25,1,0,INFPU07042,0
1512658255290,78,FileUpload D20_PE7045_7045Excel_SimpleSequentialCheck,200,Thread Group_Prod1 1-1,true,1943,1,1,78,1,0,INFPU07042,0
1512658255415,37,FileUpload D20_PE7045_7045CSV_SkipBlankColumn,200,Thread Group_Prod1 1-1,true,1682,1,1,37,1,0,INFPU07042,0
1512658255466,72,FileUpload D20_PE7045_7045EXCEL_SkipBlankColumn,200,Thread Group_Prod1 1-1,true,1985,1,1,72,1,0,INFPU07042,0
1512658255567,21,FileUpload D20_PE7045_7045CSV_SkipNonNumericData,200,Thread Group_Prod1 1-1,true,1573,1,1,21,1,0,INFPU07042,0
1512658255600,45,FileUpload D20_PE7045_7045EXCEL_SkipNonNumericData,200,Thread Group_Prod1 1-1,true,2472,1,1,45,1,0,INFPU07042,0
1512658551401,830,NoFileUpload B21_7045RawJson_NonNumerciData,200,Thread Group_Prod1 1-1,false,722,1,1,829,1,1,INFPU07042,318
1512658552279,257,NoFileUpload B21_7045RawJson_SkipBlankCols,200,Thread Group_Prod1 1-1,false,652,1,1,256,1,1,INFPU07042,0
1512658552556,256,NoFileUpload B21_7045RawJson_SkipNonNumericCols,200,Thread Group_Prod1 1-1,false,717,1,1,256,1,1,INFPU07042,0
1512658552839,274,NoFileUpload B21_7045RawJson_WithDimesion,200,Thread Group_Prod1 1-1,false,717,1,1,274,1,1,INFPU07042,0
1512658553162,264,NoFileUpload B21_7045RawJson_SingleNonBlankValue,200,Thread Group_Prod1 1-1,false,651,1,1,264,1,1,INFPU07042,0
1512658553452,766,NoFileUpload B21_7045RawJson_WithOtherValidation,200,Thread Group_Prod1 1-1,false,850,1,1,765,1,1,INFPU07042,251
1512658554243,256,FileUpload D20_PE7045_7045CSV_SimpleSequentialCheck,415,Thread Group_Prod1 1-1,false,148,1,1,256,1,1,INFPU07042,0
1512658554513,271,FileUpload D20_PE7045_7045Excel_SimpleSequentialCheck,415,Thread Group_Prod1 1-1,false,148,1,1,271,1,1,INFPU07042,0
1512658554830,260,FileUpload D20_PE7045_7045CSV_SkipBlankColumn,415,Thread Group_Prod1 1-1,false,148,1,1,260,1,1,INFPU07042,0
1512658555116,253,FileUpload D20_PE7045_7045EXCEL_SkipBlankColumn,415,Thread Group_Prod1 1-1,false,148,1,1,253,1,1,INFPU07042,0
1512658555391,253,FileUpload D20_PE7045_7045CSV_SkipNonNumericData,415,Thread Group_Prod1 1-1,false,148,1,1,253,1,1,INFPU07042,0
1512658555677,739,FileUpload D20_PE7045_7045EXCEL_SkipNonNumericData,415,Thread Group_Prod1 1-1,false,148,1,1,739,1,1,INFPU07042,248
1512658731932,861,NoFileUpload B21_7045RawJson_NonNumerciData,200,Thread Group_Prod1 1-1,true,836,1,1,860,1,0,INFPU07042,331
1512658732850,270,NoFileUpload B21_7045RawJson_SkipBlankCols,200,Thread Group_Prod1 1-1,true,755,1,1,264,1,0,INFPU07042,0
1512658733146,262,NoFileUpload B21_7045RawJson_SkipNonNumericCols,200,Thread Group_Prod1 1-1,true,661,1,1,262,1,0,INFPU07042,0
1512658733450,262,NoFileUpload B21_7045RawJson_WithDimesion,200,Thread Group_Prod1 1-1,true,842,1,1,262,1,0,INFPU07042,0
1512658733752,261,NoFileUpload B21_7045RawJson_SingleNonBlankValue,200,Thread Group_Prod1 1-1,true,601,1,1,261,1,0,INFPU07042,0
1512658734051,772,NoFileUpload B21_7045RawJson_WithOtherValidation,200,Thread Group_Prod1 1-1,true,897,1,1,771,1,0,INFPU07042,254
1512658734859,308,FileUpload D20_PE7045_7045CSV_SimpleSequentialCheck,200,Thread Group_Prod1 1-1,true,1983,1,1,307,1,0,INFPU07042,0
1512658735197,940,FileUpload D20_PE7045_7045Excel_SimpleSequentialCheck,200,Thread Group_Prod1 1-1,true,1966,1,1,939,1,0,INFPU07042,0
1512658736195,771,FileUpload D20_PE7045_7045CSV_SkipBlankColumn,200,Thread Group_Prod1 1-1,true,1705,1,1,771,1,0,INFPU07042,253
1512658736992,574,FileUpload D20_PE7045_7045EXCEL_SkipBlankColumn,200,Thread Group_Prod1 1-1,true,2008,1,1,573,1,0,INFPU07042,0
1512658737590,268,FileUpload D20_PE7045_7045CSV_SkipNonNumericData,200,Thread Group_Prod1 1-1,true,1596,1,1,267,1,0,INFPU07042,0
1512658737892,582,FileUpload D20_PE7045_7045EXCEL_SkipNonNumericData,200,Thread Group_Prod1 1-1,true,2495,1,1,581,1,0,INFPU07042,0
1512658940085,1172,NoFileUpload B17_PE7033,200,Thread Group_Prod1 1-1,true,879,1,1,1172,1,0,INFPU07042,325
1512658941258,267,NoFileUpload B18_PE7314,200,Thread Group_Prod1 1-1,true,531,1,1,267,1,0,INFPU07042,0
1512658941542,288,NoFileUpload B17_PE7044_expression,200,Thread Group_Prod1 1-1,true,516,1,1,284,1,0,INFPU07042,0
1512658941832,263,NoFileUpload B17_PE7044_range,200,Thread Group_Prod1 1-1,true,934,1,1,263,1,0,INFPU07042,0
1512658942161,1040,NoFileUpload B17_PE7044_rangeValidationRefTable,200,Thread Group_Prod1 1-1,true,928,1,1,1039,1,0,INFPU07042,256
1512658943248,277,NoFileUpload B17_PE7044_rangeValidationRefTable_dimensions,200,Thread Group_Prod1 1-1,true,967,1,1,277,1,0,INFPU07042,0
1512658943587,273,NoFileUpload B17_PE7631,200,Thread Group_Prod1 1-1,false,789,1,1,273,1,1,INFPU07042,0
1512658943886,262,NoFileUpload B17_PE7631_metaData,200,Thread Group_Prod1 1-1,false,570,1,1,262,1,1,INFPU07042,0
1512658944170,767,NoFileUpload B17_PE7631_metaData,200,Thread Group_Prod1 1-1,true,590,1,1,767,1,0,INFPU07042,254
1512658944955,265,NoFileUpload B17_PE7631_Autocorrect,200,Thread Group_Prod1 1-1,false,760,1,1,265,1,1,INFPU07042,0
1512658945246,306,FileUpload D10_PE5216,415,Thread Group_Prod1 1-1,false,148,1,1,306,1,1,INFPU07042,0
1512658945602,317,FileUpload D11_PE6030,415,Thread Group_Prod1 1-1,false,148,1,1,317,1,1,INFPU07042,0
1512658945978,256,FileUpload D12_PE6027,415,Thread Group_Prod1 1-1,false,148,1,1,256,1,1,INFPU07042,0
1512658946293,1614,FileUpload D12_PE7611,415,Thread Group_Prod1 1-1,false,148,1,1,1614,1,1,INFPU07042,254
1512658947921,752,FileUpload D12_PE7611,415,Thread Group_Prod1 1-1,false,148,1,1,752,1,1,INFPU07042,0
1512658948697,1580,FileUpload D12_PE7611,415,Thread Group_Prod1 1-1,false,148,1,1,1580,1,1,INFPU07042,259
1512658950303,748,FileUpload D12_PE7611,415,Thread Group_Prod1 1-1,false,148,1,1,748,1,1,INFPU07042,0
1512658951070,1594,FileUpload D12_PE7611,415,Thread Group_Prod1 1-1,false,148,1,1,1594,1,1,INFPU07042,258
1512658952677,764,FileUpload D12_PE7611,415,Thread Group_Prod1 1-1,false,148,1,1,764,1,1,INFPU07042,0
1512658953469,1552,FileUpload D12_PE7611,415,Thread Group_Prod1 1-1,false,148,1,1,1552,1,1,INFPU07042,252
1512658955046,739,FileUpload D12_PE7611,415,Thread Group_Prod1 1-1,false,148,1,1,739,1,1,INFPU07042,0
1512658955803,1580,FileUpload D12_PE7611,415,Thread Group_Prod1 1-1,false,148,1,1,1580,1,1,INFPU07042,256
1512658957401,775,FileUpload D12_PE7611,415,Thread Group_Prod1 1-1,false,148,1,1,775,1,1,INFPU07042,0
1512658958198,1910,FileUpload D13_PE5691_1Record,415,Thread Group_Prod1 1-1,false,148,1,1,1910,1,1,INFPU07042,253
1512658960131,936,FileUpload D15_PE5691_1Record,415,Thread Group_Prod1 1-1,false,148,1,1,936,1,1,INFPU07042,0
1512658961068,1740,FileUpload D16_PE7071_1Record,415,Thread Group_Prod1 1-1,false,148,1,1,1740,1,1,INFPU07042,248
1512658962835,821,FileUpload D17_PE7071_1Record,415,Thread Group_Prod1 1-1,false,148,1,1,821,1,1,INFPU07042,0
1512658963689,1766,FileUpload D18_PE7071_1Record,415,Thread Group_Prod1 1-1,false,148,1,1,1766,1,1,INFPU07042,253
1512658965479,1015,FileUpload D19_PE7071_1Record,415,Thread Group_Prod1 1-1,false,148,1,1,1015,1,1,INFPU07042,0
1512658966515,1799,FileUpload D20_PE7071_1Record,415,Thread Group_Prod1 1-1,false,148,1,1,1799,1,1,INFPU07042,255
1512658968347,268,NoFileUpload B21_7045RawJson_NonNumerciData,200,Thread Group_Prod1 1-1,true,836,1,1,267,1,0,INFPU07042,0
1512658968666,769,NoFileUpload B21_7045RawJson_SkipBlankCols,200,Thread Group_Prod1 1-1,true,755,1,1,769,1,0,INFPU07042,253
1512658969446,267,NoFileUpload B21_7045RawJson_SkipNonNumericCols,200,Thread Group_Prod1 1-1,true,661,1,1,267,1,0,INFPU07042,0
1512658969724,261,NoFileUpload B21_7045RawJson_WithDimesion,200,Thread Group_Prod1 1-1,true,842,1,1,261,1,0,INFPU07042,0
1512658970024,261,NoFileUpload B21_7045RawJson_SingleNonBlankValue,200,Thread Group_Prod1 1-1,true,601,1,1,261,1,0,INFPU07042,0
1512658970318,261,NoFileUpload B21_7045RawJson_WithOtherValidation,200,Thread Group_Prod1 1-1,true,897,1,1,261,1,0,INFPU07042,0
1512658970601,266,FileUpload D20_PE7045_7045CSV_SimpleSequentialCheck,200,Thread Group_Prod1 1-1,true,1983,1,1,264,1,0,INFPU07042,0
1512658970906,1134,FileUpload D20_PE7045_7045Excel_SimpleSequentialCheck,200,Thread Group_Prod1 1-1,true,1966,1,1,1133,1,0,INFPU07042,332
1512658972091,260,FileUpload D20_PE7045_7045CSV_SkipBlankColumn,200,Thread Group_Prod1 1-1,true,1705,1,1,260,1,0,INFPU07042,0
1512658972375,527,FileUpload D20_PE7045_7045EXCEL_SkipBlankColumn,200,Thread Group_Prod1 1-1,true,2008,1,1,526,1,0,INFPU07042,0
1512658972941,766,FileUpload D20_PE7045_7045CSV_SkipNonNumericData,200,Thread Group_Prod1 1-1,true,1596,1,1,765,1,0,INFPU07042,252
1512658973740,532,FileUpload D20_PE7045_7045EXCEL_SkipNonNumericData,200,Thread Group_Prod1 1-1,true,2495,1,1,531,1,0,INFPU07042,0
1512659247817,903,NoFileUpload B17_PE7033,200,Thread Group_Prod1 1-1,true,879,1,1,903,1,0,INFPU07042,326
1512659248721,267,NoFileUpload B18_PE7314,200,Thread Group_Prod1 1-1,true,531,1,1,266,1,0,INFPU07042,0
1512659249011,716,NoFileUpload B17_PE7044_expression,200,Thread Group_Prod1 1-1,true,516,1,1,715,1,0,INFPU07042,0
1512659249727,509,NoFileUpload B17_PE7044_range,200,Thread Group_Prod1 1-1,true,934,1,1,509,1,0,INFPU07042,0
1512659250305,1033,NoFileUpload B17_PE7044_rangeValidationRefTable,200,Thread Group_Prod1 1-1,true,928,1,1,1033,1,0,INFPU07042,251
1512659251392,281,NoFileUpload B17_PE7044_rangeValidationRefTable_dimensions,200,Thread Group_Prod1 1-1,true,967,1,1,280,1,0,INFPU07042,0
1512659251733,263,NoFileUpload B17_PE7631,200,Thread Group_Prod1 1-1,true,818,1,1,262,1,0,INFPU07042,0
1512659252021,257,NoFileUpload B17_PE7631_metaData,200,Thread Group_Prod1 1-1,true,590,1,1,257,1,0,INFPU07042,0
1512659252310,752,NoFileUpload B17_PE7631_metaData,200,Thread Group_Prod1 1-1,true,590,1,1,752,1,0,INFPU07042,249
1512659253084,256,NoFileUpload B17_PE7631_Autocorrect,200,Thread Group_Prod1 1-1,true,828,1,1,255,1,0,INFPU07042,0
1512659253368,267,FileUpload D10_PE5216,200,Thread Group_Prod1 1-1,true,1364,1,1,267,1,0,INFPU07042,0
1512659253713,518,FileUpload D11_PE6030,200,Thread Group_Prod1 1-1,true,3265,1,1,518,1,0,INFPU07042,0
1512659254299,590,FileUpload D12_PE6027,200,Thread Group_Prod1 1-1,true,2163,1,1,589,1,0,INFPU07042,0
1512659254952,3706,FileUpload D12_PE7611,200,Thread Group_Prod1 1-1,true,2418,1,1,3706,1,0,INFPU07042,246
1512659258683,1807,FileUpload D12_PE7611,200,Thread Group_Prod1 1-1,true,1621,1,1,1806,1,0,INFPU07042,249
1512659260511,1333,FileUpload D12_PE7611,200,Thread Group_Prod1 1-1,true,1518,1,1,1333,1,0,INFPU07042,0
1512659261870,2070,FileUpload D12_PE7611,200,Thread Group_Prod1 1-1,true,1586,1,1,2070,1,0,INFPU07042,253
1512659263968,2003,FileUpload D12_PE7611,200,Thread Group_Prod1 1-1,true,2033,1,1,2002,1,0,INFPU07042,258
1512659266006,2068,FileUpload D12_PE7611,200,Thread Group_Prod1 1-1,true,1624,1,1,2067,1,0,INFPU07042,252
1512659268099,1827,FileUpload D12_PE7611,200,Thread Group_Prod1 1-1,true,1624,1,1,1826,1,0,INFPU07042,253
1512659269959,1312,FileUpload D12_PE7611,200,Thread Group_Prod1 1-1,true,2042,1,1,1311,1,0,INFPU07042,0
1512659271303,2058,FileUpload D12_PE7611,200,Thread Group_Prod1 1-1,true,1799,1,1,2057,1,0,INFPU07042,252
1512659273390,1806,FileUpload D12_PE7611,200,Thread Group_Prod1 1-1,true,1754,1,1,1805,1,0,INFPU07042,252
1512659275234,1676,FileUpload D13_PE5691_1Record,200,Thread Group_Prod1 1-1,true,3264,1,1,1675,1,0,INFPU07042,0
1512659276922,2469,FileUpload D15_PE5691_1Record,200,Thread Group_Prod1 1-1,true,3264,1,1,2468,1,0,INFPU07042,253
1512659279393,1863,FileUpload D16_PE7071_1Record,200,Thread Group_Prod1 1-1,true,6396,1,1,1861,1,0,INFPU07042,321
1512659281288,1282,FileUpload D17_PE7071_1Record,200,Thread Group_Prod1 1-1,true,7148,1,1,1281,1,0,INFPU07042,0
1512659282624,2229,FileUpload D18_PE7071_1Record,200,Thread Group_Prod1 1-1,true,6995,1,1,2227,1,0,INFPU07042,256
1512659284898,1792,FileUpload D19_PE7071_1Record,200,Thread Group_Prod1 1-1,false,6995,1,1,1790,1,1,INFPU07042,249
1512659286715,1289,FileUpload D20_PE7071_1Record,200,Thread Group_Prod1 1-1,true,5215,1,1,1287,1,0,INFPU07042,0
1512659288040,761,NoFileUpload B21_7045RawJson_NonNumerciData,200,Thread Group_Prod1 1-1,true,836,1,1,761,1,0,INFPU07042,252
1512659288834,256,NoFileUpload B21_7045RawJson_SkipBlankCols,200,Thread Group_Prod1 1-1,true,755,1,1,255,1,0,INFPU07042,0
1512659289115,256,NoFileUpload B21_7045RawJson_SkipNonNumericCols,200,Thread Group_Prod1 1-1,true,661,1,1,255,1,0,INFPU07042,0
1512659289402,258,NoFileUpload B21_7045RawJson_WithDimesion,200,Thread Group_Prod1 1-1,true,842,1,1,257,1,0,INFPU07042,0
1512659289688,255,NoFileUpload B21_7045RawJson_SingleNonBlankValue,200,Thread Group_Prod1 1-1,true,601,1,1,255,1,0,INFPU07042,0
1512659289970,257,NoFileUpload B21_7045RawJson_WithOtherValidation,200,Thread Group_Prod1 1-1,true,897,1,1,257,1,0,INFPU07042,0
1512659290254,768,FileUpload D20_PE7045_7045CSV_SimpleSequentialCheck,200,Thread Group_Prod1 1-1,true,1983,1,1,767,1,0,INFPU07042,253
1512659291048,531,FileUpload D20_PE7045_7045Excel_SimpleSequentialCheck,200,Thread Group_Prod1 1-1,true,1966,1,1,531,1,0,INFPU07042,0
1512659291624,260,FileUpload D20_PE7045_7045CSV_SkipBlankColumn,200,Thread Group_Prod1 1-1,true,1705,1,1,259,1,0,INFPU07042,0
1512659291928,525,FileUpload D20_PE7045_7045EXCEL_SkipBlankColumn,200,Thread Group_Prod1 1-1,true,2008,1,1,524,1,0,INFPU07042,0
1512659292487,769,FileUpload D20_PE7045_7045CSV_SkipNonNumericData,200,Thread Group_Prod1 1-1,true,1596,1,1,769,1,0,INFPU07042,253
1512659293279,525,FileUpload D20_PE7045_7045EXCEL_SkipNonNumericData,200,Thread Group_Prod1 1-1,true,2495,1,1,524,1,0,INFPU07042,0
1512659316684,867,NoFileUpload B17_PE7033,200,Thread Group_Prod1 1-1,true,879,1,1,867,1,0,INFPU07042,327
1512659317552,259,NoFileUpload B18_PE7314,200,Thread Group_Prod1 1-1,true,531,1,1,259,1,0,INFPU07042,0
1512659317840,259,NoFileUpload B17_PE7044_expression,200,Thread Group_Prod1 1-1,true,516,1,1,259,1,0,INFPU07042,0
1512659318100,258,NoFileUpload B17_PE7044_range,200,Thread Group_Prod1 1-1,true,934,1,1,258,1,0,INFPU07042,0
1512659318425,272,NoFileUpload B17_PE7044_rangeValidationRefTable,200,Thread Group_Prod1 1-1,true,928,1,1,272,1,0,INFPU07042,0
1512659318749,1012,NoFileUpload B17_PE7044_rangeValidationRefTable_dimensions,200,Thread Group_Prod1 1-1,true,967,1,1,1012,1,0,INFPU07042,250
1512659319826,253,NoFileUpload B17_PE7631,200,Thread Group_Prod1 1-1,true,818,1,1,252,1,0,INFPU07042,0
1512659320098,253,NoFileUpload B17_PE7631_metaData,200,Thread Group_Prod1 1-1,true,590,1,1,253,1,0,INFPU07042,0
1512659320385,257,NoFileUpload B17_PE7631_metaData,200,Thread Group_Prod1 1-1,true,590,1,1,257,1,0,INFPU07042,0
1512659320673,253,NoFileUpload B17_PE7631_Autocorrect,200,Thread Group_Prod1 1-1,true,828,1,1,253,1,0,INFPU07042,0
1512659320955,764,FileUpload D10_PE5216,200,Thread Group_Prod1 1-1,true,1364,1,1,764,1,0,INFPU07042,251
1512659321802,516,FileUpload D11_PE6030,200,Thread Group_Prod1 1-1,true,3265,1,1,515,1,0,INFPU07042,0
1512659322385,542,FileUpload D12_PE6027,200,Thread Group_Prod1 1-1,true,2163,1,1,542,1,0,INFPU07042,0
1512659322993,1802,FileUpload D12_PE7611,200,Thread Group_Prod1 1-1,true,2418,1,1,1801,1,0,INFPU07042,249
1512659324826,1044,FileUpload D12_PE7611,200,Thread Group_Prod1 1-1,true,1621,1,1,1044,1,0,INFPU07042,0
1512659325906,1826,FileUpload D12_PE7611,200,Thread Group_Prod1 1-1,true,1518,1,1,1826,1,0,INFPU07042,255
1512659327763,1059,FileUpload D12_PE7611,200,Thread Group_Prod1 1-1,true,1586,1,1,1059,1,0,INFPU07042,0
1512659328853,1837,FileUpload D12_PE7611,200,Thread Group_Prod1 1-1,true,2033,1,1,1836,1,0,INFPU07042,258
1512659330718,1327,FileUpload D12_PE7611,200,Thread Group_Prod1 1-1,true,1624,1,1,1326,1,0,INFPU07042,0
1512659332070,2006,FileUpload D12_PE7611,200,Thread Group_Prod1 1-1,true,1624,1,1,2006,1,0,INFPU07042,249
1512659334110,1803,FileUpload D12_PE7611,200,Thread Group_Prod1 1-1,true,2042,1,1,1802,1,0,INFPU07042,252
1512659335943,1331,FileUpload D12_PE7611,200,Thread Group_Prod1 1-1,true,1799,1,1,1331,1,0,INFPU07042,0
1512659337295,1778,FileUpload D12_PE7611,200,Thread Group_Prod1 1-1,true,1754,1,1,1778,1,0,INFPU07042,249
1512659339106,1535,FileUpload D13_PE5691_1Record,200,Thread Group_Prod1 1-1,true,3264,1,1,1534,1,0,INFPU07042,0
1512659340672,2102,FileUpload D15_PE5691_1Record,200,Thread Group_Prod1 1-1,true,3264,1,1,2101,1,0,INFPU07042,257
1512659342775,2049,FileUpload D16_PE7071_1Record,200,Thread Group_Prod1 1-1,true,6396,1,1,2047,1,0,INFPU07042,252
1512659344864,2085,FileUpload D17_PE7071_1Record,200,Thread Group_Prod1 1-1,true,7148,1,1,2082,1,0,INFPU07042,256
1512659346998,2141,FileUpload D18_PE7071_1Record,200,Thread Group_Prod1 1-1,true,6995,1,1,2139,1,0,INFPU07042,325
1512659349181,2039,FileUpload D20_PE7071_1Record,200,Thread Group_Prod1 1-1,true,5215,1,1,2036,1,0,INFPU07042,251
1512659351262,763,NoFileUpload B21_7045RawJson_NonNumerciData,200,Thread Group_Prod1 1-1,true,836,1,1,762,1,0,INFPU07042,253
1512659352069,256,NoFileUpload B21_7045RawJson_SkipBlankCols,200,Thread Group_Prod1 1-1,true,755,1,1,256,1,0,INFPU07042,0
1512659352356,257,NoFileUpload B21_7045RawJson_SkipNonNumericCols,200,Thread Group_Prod1 1-1,true,661,1,1,256,1,0,INFPU07042,0
1512659352625,259,NoFileUpload B21_7045RawJson_WithDimesion,200,Thread Group_Prod1 1-1,true,842,1,1,259,1,0,INFPU07042,0
1512659352932,257,NoFileUpload B21_7045RawJson_SingleNonBlankValue,200,Thread Group_Prod1 1-1,true,601,1,1,257,1,0,INFPU07042,0
1512659353222,258,NoFileUpload B21_7045RawJson_WithOtherValidation,200,Thread Group_Prod1 1-1,true,897,1,1,257,1,0,INFPU07042,0
1512659353502,768,FileUpload D20_PE7045_7045CSV_SimpleSequentialCheck,200,Thread Group_Prod1 1-1,true,1983,1,1,767,1,0,INFPU07042,254
1512659354300,522,FileUpload D20_PE7045_7045Excel_SimpleSequentialCheck,200,Thread Group_Prod1 1-1,true,1966,1,1,522,1,0,INFPU07042,0
1512659354877,263,FileUpload D20_PE7045_7045CSV_SkipBlankColumn,200,Thread Group_Prod1 1-1,true,1705,1,1,259,1,0,INFPU07042,0
1512659355163,522,FileUpload D20_PE7045_7045EXCEL_SkipBlankColumn,200,Thread Group_Prod1 1-1,true,2008,1,1,521,1,0,INFPU07042,0
1512659355709,747,FileUpload D20_PE7045_7045CSV_SkipNonNumericData,200,Thread Group_Prod1 1-1,true,1596,1,1,746,1,0,INFPU07042,248
1512659356489,508,FileUpload D20_PE7045_7045EXCEL_SkipNonNumericData,200,Thread Group_Prod1 1-1,true,2495,1,1,508,1,0,INFPU07042,0
