{  
   "entities":[  
      {  
         "contextData":{  
            "campaignId":"11111",
            "companyId":"12345",
            "grpCode":"1435",
            "cpyCode":"4444",
            "ctryCode":"PL",
            "industry":{  
               "superSector":"CG",
               "sector":"100",
               "subSector":"101"
            },
            "orgSize":123
         },
         "sections":[  
            {  
               "sectionCode":"incumbent_data",
               "sectionStructure":{  
                  "columns":[  
                     {  
                        "code":"BIRTH_YEAR",
                        "displayLabel":"Year of Birth",
                        "dataType":"int",
                        "questionType":"integer",
                        "validations":[  
                           {  
                              "mda":"exclude_row",
                              "errorType":"ERROR",
                              "validationType":"expression",
                              "expression":"DECODE(this.BIRTH_YEAR >= 1940,DECODE(this.BIRTH_YEAR <= 2000,\"true\",\"false\"),\"false\");",
                              "errorGroup":"job_info",
                              "message":"BIRTH_YEAR value is invalid",
                              "_id":"59ca0dd8f8cda056446c065f",
                              "category":"input_data"
                           }
                        ]
                     }
                  ]
               },
               "data":[  
                  {  
                     "BIRTH_YEAR":1970
                  },
                  {  
                     "BIRTH_YEAR":"1800"
                  }
               ]
            },
            {  
               "sectionCode":"company_data",
               "sectionStructure":{  
                  "columns":[  
                     {  
                        "code":"POS_CODE",
                        "displayLabel":"Mercer Universal Position Code (MUPCS®)",
                        "dataType":"string",
                        "questionType":"text",
                        "validations":[  
                           {  
                              "mda":"exclude_row",
                              "errorType":"ERROR",
                              "validationType":"expression",
                              "expression":"ISBLANK(this.POS_CODE);",
                              "errorGroup":"job_info",
                              "message":"POS_CODE value can not be null or empty",
                              "_id":"59ca0dd9f8cda056446c0664",
                              "category":"input_data"
                           }
                        ]
                     }
                  ]
               },
               "data":[  
                  {  
                     "POS_CODE":""
                  }
               ]
            }
         ]
      }
   ]
}