{  
   "entities":[  
      {  
         "sections":[  
            {  
               "sectionCode":"COMPENVALIVISIB01",
               "sectionStructure":{  
                  "columns":[  
                     {  
                        "code":"YOUR_EEID",
                        "displayLabel":"Employee Identifier",
                        "dataType":"int",
                        "questionType":"integer",
                        "validations":[  

                        ]
                     },
                     {  
                        "code":"YOUR_TITLE",
                        "displayLabel":"Organisation Job Title",
                        "dataType":"string",
                        "questionType":"text",
                        "validations":[  

                        ]
                     },
                     {  
                        "code":"dependent1",
                        "displayLabel":"Dependent1",
                        "dataType":"string",
                        "questionType":"text",
                        "validations":[  

                        ]
                     },
                     {  
                        "code":"dependent2",
                        "displayLabel":"Dependent2",
                        "dataType":"string",
                        "questionType":"text",
                        "validations":[  

                        ]
                     },
                     {  
                        "code":"dependent3",
                        "displayLabel":"Dependent3",
                        "dataType":"string",
                        "questionType":"text",
                        "validations":[  

                        ]
                     },
                     {  
                        "_id":"59dd3a05badc3014933ff6a5",
                        "questionType":"dropdown",
                        "code":"eligibility",
                        "displayLabel":"Eligibility",
                        "dataType":"string",
                        "validations":[  
                           {  
                              "_id":"59de386543b68ba4431bbd0d",
                              "errorType":"ERROR",
                              "validationType":"eligibility",
                              "message":"",
                              "category":"input_data",
                              "dependentColumns":[  
                                 "dependent1",
                                 "dependent2",
                                 "dependent3"
                              ]
                           }
                        ],
                        "options":{  
                           "questionsAnswers":[  

                           ],
                           "items":[  
                              {  
                                 "value":"Y",
                                 "displayName":"Y"
                              },
                              {  
                                 "value":"N",
                                 "displayName":"N"
                              }
                           ]
                        }
                     }
                  ]
               },
               "data":[  
                  {  
                     "YOUR_EEID":"1",
                     "YOUR_TITLE":"aaa",
                     "dependent1":null,
                     "dependent2":null,
                     "dependent3":null,
                     "eligibility":"Y"

                  },
                  {  
                     "YOUR_EEID":"2",
                     "YOUR_TITLE":"bbb",
                     "dependent1":"1",
                     "dependent2":"1",
                     "dependent3":"1",
                     "eligibility":"Y"
                  },
                  {  
                     "YOUR_EEID":"3",
                     "YOUR_TITLE":"ccc",
                     "dependent1":"",
                     "dependent2":"",
                     "dependent3":"1",
                     "eligibility":"Y"
                  },
                  {  
                     "YOUR_EEID":"4",
                     "YOUR_TITLE":"ccc",
                     "dependent1":"",
                     "dependent2":"",
                     "dependent3":"",
                     "eligibility":"N"
                  },
                  {  
                     "YOUR_EEID":"5",
                     "YOUR_TITLE":"eee",
                     "dependent1":"1",
                     "dependent2":"1",
                     "dependent3":"1",
                     "eligibility":"N"
                  },
                  {  
                     "YOUR_EEID":"6",
                     "YOUR_TITLE":"fff",
                     "dependent1":"",
                     "dependent2":"",
                     "dependent3":"1",
                     "eligibility":"N"
                  },
					  {  
						 "YOUR_EEID":"7",
						 "YOUR_TITLE":"ggg",
						 "dependent1":"",
						 "dependent2":"",
						 "dependent3":"0",
						 "eligibility":"N"
                  },
                  {  
                     "YOUR_EEID":"8",
                     "YOUR_TITLE":"hhh",
                     "dependent1":"",
                     "dependent2":"",
                     "dependent3":"",
                     "eligibility":""
                  },
                  {  
                     "YOUR_EEID":"9",
                     "YOUR_TITLE":"hhh",
                     "dependent1":"",
                     "dependent2":"",
                     "dependent3":"0",
                     "eligibility":""
                  },
                  {  
                     "YOUR_EEID":"10",
                     "YOUR_TITLE":"hhh",
                     "dependent1":"0",
                     "dependent2":"",
                     "dependent3":"0",
                     "eligibility":""
                  }
               ],
               "otherSectionsData":{  

               },
               "contextData":{  
                  "campaignId":"59ca2a66c1e15a565af88407",
                  "companyId":"59c3eac0fc22fa6928d09aa4",
                  "companyName":"Exadel",
                  "sectionId":"pe3707Section",
                  "grpCode":"",
                  "cpyCode":"",
                  "ctryCode":"PL",
                  "orgSize":{  
                     "59c3eac0fc22fa6928d09aa4":null
                  },
                  "uniqueIdColumnCode":"YOUR_EEID",
                  "industry":{  
                     "superSector":"CG",
                     "sector":"100",
                     "subSector":"101"
                  }
               }
            }
         ]
      }
   ]
}