{  
   "entities":[  
      {  
         "sectionStructure":{  
            "columns":[  
               {  
                  "code":"city",
                  "displayLabel":"city",
                  "dataType":"string",
                  "validations":[  
                     {  
                        "errorType":"ERROR",
                        "validationType":"range",
						"minError":"15000",
						"maxError":"24500",
						"minAlert":"17000",
						"maxAlert":"21000",
                        "expression":"DECODE(LENGTH(this.city) > 0,true,false);",
                        "errorGroup":"Personal",
                        "message":"Length of Department",
						"_id": "59df5c44527b5be1ac230224",
						"dependentColumns": [] 
						
                     }
                  ]
               },
               {  
                  "code":"COUNTRY_CODE",
                  "displayLabel":"COUNTRY_CODE",
                  "dataType":"string",
                  "validations":[  
                     {  
                        "errorType":"ERROR",
                        "validationType":"range",
						"minError":"15000",
						"maxError":"24500",
						"minAlert":"17000",
						"maxAlert":"21000",
                        "expression":"DECODE(LENGTH(this.COUNTRY_CODE) > 0,true,false);",
                        "errorGroup":"Personal",
                        "message":"Length of Department"
                     }
                  ]
               },
			   {  
                  "code":"YOUR_EEID",
                  "displayLabel":"YOUR_EEID",
                  "dataType":"string",
                  "validations":[  
                     {  
                        "errorType":"ERROR",
                        "validationType":"expression",
                        "expression":"DECODE(LENGTH(this.YOUR_EEID) > 0,true,false);",
                        "errorGroup":"Personal",
                        "message":"Length of Department"
                     }
                  ]
               }
            ]
         },
         "contextData":{  
            "uniqueIdColumnCode":"ID",
            "campaignId":"11111",
            "sectionId":"11111",
			"companyName":"Company1",
            "grpCode":"1435",
            "cpyCode":"4444",
            "ctryCode":"PL",
            "industry":{  
               "superSector":"CG",
               "sector":"100",
               "subSector":"101"
            },
            "orgSize":123
         }
      }
   ]
}