timeStamp,elapsed,label,responseCode,threadName,success,bytes,grpThreads,allThreads,Latency,SampleCount,ErrorCount,Hostname,Connect
1512647643596,21003,NoFileUpload B24_PE7474_Testcase1,Non HTTP response code: java.net.ConnectException,Thread Group_Prod1 1-1,false,2139,1,1,0,1,1,INFPU07042,21003
1512647664617,20996,NoFileUpload B24_PE7474_Testcase2,Non HTTP response code: java.net.ConnectException,Thread Group_Prod1 1-1,false,2139,1,1,0,1,1,INFPU07042,20996
1512647685636,21006,NoFileUpload B24_PE7474_Testcase3,Non HTTP response code: java.net.ConnectException,Thread Group_Prod1 1-1,false,2139,1,1,0,1,1,INFPU07042,21006
1512647706657,21006,NoFileUpload B24_PE7474_Testcase4,Non HTTP response code: java.net.ConnectException,Thread Group_Prod1 1-1,false,2139,1,1,0,1,1,INFPU07042,21006
1512647727683,21002,NoFileUpload B24_PE7474_Testcase5,Non HTTP response code: java.net.ConnectException,Thread Group_Prod1 1-1,false,2139,1,1,0,1,1,INFPU07042,21002
1512647748715,7515,NoFileUpload B24_PE7474_Testcase6,Non HTTP response code: java.net.SocketException,Thread Group_Prod1 1-1,false,2160,1,1,0,1,1,INFPU07042,7514
1512647916337,3745,NoFileUpload B24_PE7474_Testcase1,Non HTTP response code: java.net.SocketException,Thread Group_Prod1 1-1,false,2160,1,1,0,1,1,INFPU07042,3745
1512647964249,1012,NoFileUpload B24_PE7474_Testcase1,Non HTTP response code: java.net.ConnectException,Thread Group_Prod1 1-1,false,2137,1,1,0,1,1,INFPU07042,1012
1512647965278,1003,NoFileUpload B24_PE7474_Testcase2,Non HTTP response code: java.net.ConnectException,Thread Group_Prod1 1-1,false,2137,1,1,0,1,1,INFPU07042,1003
1512647966298,1003,NoFileUpload B24_PE7474_Testcase3,Non HTTP response code: java.net.ConnectException,Thread Group_Prod1 1-1,false,2137,1,1,0,1,1,INFPU07042,1003
1512647967317,1003,NoFileUpload B24_PE7474_Testcase4,Non HTTP response code: java.net.ConnectException,Thread Group_Prod1 1-1,false,2137,1,1,0,1,1,INFPU07042,1003
1512647968339,1002,NoFileUpload B24_PE7474_Testcase5,Non HTTP response code: java.net.ConnectException,Thread Group_Prod1 1-1,false,2137,1,1,0,1,1,INFPU07042,1002
1512647969361,1002,NoFileUpload B24_PE7474_Testcase6,Non HTTP response code: java.net.ConnectException,Thread Group_Prod1 1-1,false,2137,1,1,0,1,1,INFPU07042,1002
1512648172851,1258,NoFileUpload B24_PE7474_Testcase1,200,Thread Group_Prod1 1-1,false,1008,1,1,1258,1,1,INFPU07042,5
1512648174128,38,NoFileUpload B24_PE7474_Testcase2,200,Thread Group_Prod1 1-1,false,1008,1,1,38,1,1,INFPU07042,0
1512648174179,30,NoFileUpload B24_PE7474_Testcase3,200,Thread Group_Prod1 1-1,false,960,1,1,30,1,1,INFPU07042,0
1512648174230,33,NoFileUpload B24_PE7474_Testcase4,200,Thread Group_Prod1 1-1,false,963,1,1,33,1,1,INFPU07042,0
1512648174283,35,NoFileUpload B24_PE7474_Testcase5,200,Thread Group_Prod1 1-1,false,1008,1,1,35,1,1,INFPU07042,0
1512648174342,24,NoFileUpload B24_PE7474_Testcase6,200,Thread Group_Prod1 1-1,false,995,1,1,24,1,1,INFPU07042,0
1512648610657,70,NoFileUpload B24_PE7474_Testcase1,200,Thread Group_Prod1 1-1,false,1008,1,1,69,1,1,INFPU07042,12
1512648610753,34,NoFileUpload B24_PE7474_Testcase2,200,Thread Group_Prod1 1-1,false,1008,1,1,34,1,1,INFPU07042,0
1512648610796,41,NoFileUpload B24_PE7474_Testcase3,200,Thread Group_Prod1 1-1,false,960,1,1,41,1,1,INFPU07042,0
1512648610849,44,NoFileUpload B24_PE7474_Testcase4,200,Thread Group_Prod1 1-1,false,963,1,1,44,1,1,INFPU07042,0
1512648610908,42,NoFileUpload B24_PE7474_Testcase5,200,Thread Group_Prod1 1-1,false,1008,1,1,42,1,1,INFPU07042,0
1512648610963,111,NoFileUpload B24_PE7474_Testcase6,200,Thread Group_Prod1 1-1,false,995,1,1,111,1,1,INFPU07042,0
1512648689229,1192,NoFileUpload B24_PE7474_Testcase1,200,Thread Group_Prod1 1-1,true,1537,1,1,1192,1,0,INFPU07042,6
1512648690448,60,NoFileUpload B24_PE7474_Testcase2,200,Thread Group_Prod1 1-1,true,1671,1,1,58,1,0,INFPU07042,0
1512648690525,26,NoFileUpload B24_PE7474_Testcase3,200,Thread Group_Prod1 1-1,true,1093,1,1,26,1,0,INFPU07042,0
1512648690564,49,NoFileUpload B24_PE7474_Testcase4,200,Thread Group_Prod1 1-1,true,1782,1,1,49,1,0,INFPU07042,0
1512648690630,80,NoFileUpload B24_PE7474_Testcase5,200,Thread Group_Prod1 1-1,true,1687,1,1,80,1,0,INFPU07042,0
1512648690737,51,NoFileUpload B24_PE7474_Testcase6,200,Thread Group_Prod1 1-1,true,1542,1,1,51,1,0,INFPU07042,0
1512649281499,1035,NoFileUpload B24_PE7474_Testcase1,200,Thread Group_Prod1 1-1,true,1537,1,1,1035,1,0,INFPU07042,3
1512649282557,38,NoFileUpload B24_PE7474_Testcase2,200,Thread Group_Prod1 1-1,true,1671,1,1,38,1,0,INFPU07042,0
1512649282608,24,NoFileUpload B24_PE7474_Testcase3,200,Thread Group_Prod1 1-1,true,1093,1,1,24,1,0,INFPU07042,0
1512649282647,55,NoFileUpload B24_PE7474_Testcase4,200,Thread Group_Prod1 1-1,true,1782,1,1,55,1,0,INFPU07042,0
1512649282714,75,NoFileUpload B24_PE7474_Testcase5,200,Thread Group_Prod1 1-1,true,1687,1,1,75,1,0,INFPU07042,0
1512649282812,42,NoFileUpload B24_PE7474_Testcase6,200,Thread Group_Prod1 1-1,true,1542,1,1,42,1,0,INFPU07042,0
1512649282874,409,FileUpload D12_PE7474,200,Thread Group_Prod1 1-1,false,4183,1,1,409,1,1,INFPU07042,0
1512650018077,52,NoFileUpload B24_PE7474_Testcase1,200,Thread Group_Prod1 1-1,true,1537,1,1,52,1,0,INFPU07042,4
1512650018141,41,NoFileUpload B24_PE7474_Testcase2,200,Thread Group_Prod1 1-1,true,1671,1,1,40,1,0,INFPU07042,0
1512650018192,35,NoFileUpload B24_PE7474_Testcase3,200,Thread Group_Prod1 1-1,true,1093,1,1,35,1,0,INFPU07042,0
1512650018256,57,NoFileUpload B24_PE7474_Testcase4,200,Thread Group_Prod1 1-1,true,1782,1,1,57,1,0,INFPU07042,0
1512650018332,95,NoFileUpload B24_PE7474_Testcase5,200,Thread Group_Prod1 1-1,true,1687,1,1,95,1,0,INFPU07042,0
1512650018462,33,NoFileUpload B24_PE7474_Testcase6,200,Thread Group_Prod1 1-1,true,1542,1,1,33,1,0,INFPU07042,0
1512650018529,189,FileUpload D12_PE7474,200,Thread Group_Prod1 1-1,true,4183,1,1,188,1,0,INFPU07042,0
