{
    "entities": [
        {
            "data": [
                {
                    "YOUR_EEID": "1",
                    "question2": {
                        "ques1": "9",
                        "ques3": null,
                        "ques2": "10"
                    },
                    "$$id": "58d0360baa2ae02cc4723431",
                    "question1": {
                        "ques1": "vivek.kgmail.com",
                        "ques3": "1,null,vivek.k@gmail.com",
                        "ques2": [
                            "nikhil.ss@gmail.com",
                            "komal.kabra@yahoo.com",
                            "vivek.k@gmail.com"
                        ]
                    },
                    "EMP006": "EMP_006",
                    "validationErrors": [
                        {
                            "dependentColumns": "",
                            "clientInstructions": "Please provide Annual Base Salary",
                            "errorType": "ERROR",
                            "parameter": "",
                            "validationType": "email",
                            "_id": "59e91b14a811920015bcd533",
                            "message": "Annual Base Salary is blank",
                            "category": "input_data",
                            "dimension": "ques1",
                            "field": "question1"
                        },
                        {
                            "dependentColumns": "",
                            "clientInstructions": "Please provide Annual Base Salary",
                            "errorType": "ERROR",
                            "parameter": "",
                            "validationType": "email",
                            "_id": "59e91b14a811920015bcd533",
                            "message": "Annual Base Salary is blank",
                            "category": "input_data",
                            "dimension": "ques3",
                            "field": "question1"
                        },
                        {
                            "dependentColumns": "",
                            "clientInstructions": "Please provide Annual Base Salary",
                            "errorType": "ERROR",
                            "parameter": "",
                            "validationType": "email",
                            "_id": "59e91b14a811920015bcd533",
                            "message": "Annual Base Salary is blank",
                            "category": "input_data",
                            "dimension": "ques3",
                            "field": "question1"
                        }
                    ]
                },
                {
                    "YOUR_EEID": "1",
                    "question2": {
                        "ques1": "9",
                        "ques3": "3",
                        "ques2": "10"
                    },
                    "$$id": "58d0360baa2ae02cc4723431",
                    "question1": {
                        "ques1": "10",
                        "ques3": "2",
                        "ques2": "20"
                    },
                    "EMP006": "EMP_006",
                    "validationErrors": [
                        {
                            "dependentColumns": "",
                            "clientInstructions": "Please provide Annual Base Salary",
                            "errorType": "ERROR",
                            "parameter": "",
                            "validationType": "email",
                            "_id": "59e91b14a811920015bcd533",
                            "message": "Annual Base Salary is blank",
                            "category": "input_data",
                            "dimension": "ques1",
                            "field": "question1"
                        },
                        {
                            "dependentColumns": "",
                            "clientInstructions": "Please provide Annual Base Salary",
                            "errorType": "ERROR",
                            "parameter": "",
                            "validationType": "email",
                            "_id": "59e91b14a811920015bcd533",
                            "message": "Annual Base Salary is blank",
                            "category": "input_data",
                            "dimension": "ques2",
                            "field": "question1"
                        },
                        {
                            "dependentColumns": "",
                            "clientInstructions": "Please provide Annual Base Salary",
                            "errorType": "ERROR",
                            "parameter": "",
                            "validationType": "email",
                            "_id": "59e91b14a811920015bcd533",
                            "message": "Annual Base Salary is blank",
                            "category": "input_data",
                            "dimension": "ques3",
                            "field": "question1"
                        },
                        {
                            "dependentColumns": "",
                            "expression": "this.question2.ques3 > 2;",
                            "clientInstructions": "Please provide Annual Base Salary",
                            "errorType": "ALERT",
                            "parameter": "",
                            "validationType": "expression",
                            "_id": "59e91b14a811920015bcd533",
                            "message": "Annual Base Salary is blank",
                            "category": "input_data",
                            "dimension": "ques3",
                            "field": "question2"
                        }
                    ]
                }
            ],
            "contextData": {
                "uniqueIdColumnCode": "YOUR_EEID",
                "companyId": "59d354203a69612314ecd67a",
                "campaignId": "59d3529c5b76fa37047c9e9e",
                "grpCode": "",
                "cpyCode": "",
                "industry": {
                    "superSector": "EN",
                    "subSector": "1210",
                    "sector": "143"
                },
                "sectionId": "incumbent_data",
                "ctryCode": "BY"
            }
        }
    ]
}